[gd_resource type="AtlasTexture" load_steps=2 format=2]

[ext_resource path="res://assets/crosshair_temp/crosshairs_tilesheet_white@2.png" type="Texture2D" id=1]

[resource]
atlas = ExtResource( 1 )
region = Rect2( 466, 324, 24, 32 )
