[gd_scene load_steps=2 format=2]

[ext_resource path="res://assets/gun_model/blasterC.glb" type="PackedScene" id=1]

[node name="blasterC" instance=ExtResource( 1 )]

[node name="blasterC" parent="tmpParent" index="0"]
transform = Transform3D( -1, 0, -2.06632e-07, 0, 1, 0, 2.06632e-07, 0, -1, 0, 0, 0 )
