[gd_scene load_steps=5 format=3 uid="uid://cgjlvjh2k2vfe"]

[ext_resource type="Script" path="res://world_item/environments/smoke_grenade_effect.gd" id="1"]
[ext_resource type="Material" path="res://materials/smoke_mesh_material.tres" id="2"]

[sub_resource type="SphereMesh" id="2"]
material = ExtResource("2")
radius = 9.0
height = 18.0

[sub_resource type="SphereShape3D" id="3"]
radius = 9.0

[node name="SmokeGrenadeEffect" type="Node3D"]
script = ExtResource("1")
duration_second = 25.0
smoke_transition_eased = 0.0149921

[node name="SmokeMesh" type="MeshInstance3D" parent="."]
cast_shadow = 0
mesh = SubResource("2")

[node name="Area3D" type="Area3D" parent="."]
collision_layer = 0
collision_mask = 6

[node name="CollisionShape3D" type="CollisionShape3D" parent="Area3D"]
shape = SubResource("3")
